<svg width="20" height="21" viewBox="0 0 20 21" fill="none" xmlns="http://www.w3.org/2000/svg">
<path d="M10.5923 7.40825C10.5131 7.33238 10.4196 7.27291 10.3173 7.23325C10.1144 7.1499 9.88687 7.1499 9.68398 7.23325C9.58169 7.27291 9.48824 7.33238 9.40898 7.40825L6.90898 9.90825C6.75206 10.0652 6.66391 10.278 6.66391 10.4999C6.66391 10.7218 6.75206 10.9347 6.90898 11.0916C7.0659 11.2485 7.27873 11.3367 7.50065 11.3367C7.72257 11.3367 7.9354 11.2485 8.09232 11.0916L9.16732 10.0082L9.16732 12.9999C9.16732 13.2209 9.25511 13.4329 9.41139 13.5892C9.56768 13.7455 9.77964 13.8332 10.0006 13.8332C10.2217 13.8332 10.4336 13.7455 10.5899 13.5892C10.7462 13.4329 10.834 13.2209 10.834 12.9999L10.834 10.0082L11.909 11.0916C11.9865 11.1697 12.0786 11.2317 12.1802 11.274C12.2817 11.3163 12.3906 11.3381 12.5007 11.3381C12.6107 11.3381 12.7196 11.3163 12.8211 11.274C12.9227 11.2317 13.0148 11.1697 13.0923 11.0916C13.1704 11.0141 13.2324 10.9219 13.2747 10.8204C13.317 10.7188 13.3388 10.6099 13.3388 10.4999C13.3388 10.3899 13.317 10.281 13.2747 10.1794C13.2324 10.0779 13.1704 9.98572 13.0923 9.90825L10.5923 7.40825ZM10.0006 2.16658C8.35247 2.16658 6.74131 2.65533 5.3709 3.571C4.00049 4.48668 2.93238 5.78817 2.30165 7.31089C1.67092 8.83361 1.50589 10.5092 1.82744 12.1257C2.14898 13.7422 2.94266 15.227 4.10809 16.3925C5.27353 17.5579 6.75839 18.3516 8.3749 18.6731C9.99141 18.9947 11.667 18.8296 13.1897 18.1989C14.7124 17.5682 16.0139 16.5001 16.9296 15.1297C17.8452 13.7593 18.334 12.1481 18.334 10.4999C18.334 8.28978 17.456 6.17016 15.8932 4.60736C15.1194 3.83354 14.2007 3.21971 13.1897 2.80092C12.1786 2.38213 11.095 2.16658 10.0006 2.16658ZM10.0007 17.1666C8.68211 17.1666 7.39318 16.7756 6.29685 16.043C5.20052 15.3105 4.34604 14.2693 3.84145 13.0511C3.33687 11.833 3.20485 10.4925 3.46208 9.19931C3.71932 7.90611 4.35425 6.71822 5.2866 5.78587C6.21895 4.85352 7.40684 4.21858 8.70005 3.96135C9.99325 3.70411 11.3337 3.83613 12.5519 4.34072C13.77 4.8453 14.8112 5.69979 15.5438 6.79611C16.2763 7.89244 16.6673 9.18137 16.6673 10.4999C16.6673 12.268 15.9649 13.9637 14.7147 15.214C13.4645 16.4642 11.7688 17.1666 10.0007 17.1666Z" fill="#78787A"/>
</svg>
