<svg width="32" height="32" viewBox="0 0 32 32" fill="none" xmlns="http://www.w3.org/2000/svg">
<path d="M15.9993 22.6667C16.4596 22.6667 16.8327 22.2936 16.8327 21.8333C16.8327 21.3731 16.4596 21 15.9993 21C15.5391 21 15.166 21.3731 15.166 21.8333C15.166 22.2936 15.5391 22.6667 15.9993 22.6667Z" stroke="black" stroke-width="2" stroke-linecap="round" stroke-linejoin="round"/>
<path d="M15.9993 16.8333C16.4596 16.8333 16.8327 16.4602 16.8327 16C16.8327 15.5397 16.4596 15.1666 15.9993 15.1666C15.5391 15.1666 15.166 15.5397 15.166 16C15.166 16.4602 15.5391 16.8333 15.9993 16.8333Z" stroke="black" stroke-width="2" stroke-linecap="round" stroke-linejoin="round"/>
<path d="M15.9993 11C16.4596 11 16.8327 10.6269 16.8327 10.1667C16.8327 9.70647 16.4596 9.33337 15.9993 9.33337C15.5391 9.33337 15.166 9.70647 15.166 10.1667C15.166 10.6269 15.5391 11 15.9993 11Z" stroke="black" stroke-width="2" stroke-linecap="round" stroke-linejoin="round"/>
</svg>
