<svg width="81" height="81" viewBox="0 0 81 81" fill="none" xmlns="http://www.w3.org/2000/svg">
<rect x="0.5" y="0.5" width="80" height="80" rx="40" stroke="#EBEBEB"/>
<rect x="5" y="5" width="71" height="71" rx="35.5" fill="#ED3863"/>
<path d="M27.5 31H30.5H54.5" stroke="white" stroke-width="2" stroke-linecap="round" stroke-linejoin="round"/>
<path d="M35 31V28C35 27.2044 35.3161 26.4413 35.8787 25.8787C36.4413 25.3161 37.2044 25 38 25H44C44.7956 25 45.5587 25.3161 46.1213 25.8787C46.6839 26.4413 47 27.2044 47 28V31M51.5 31V52C51.5 52.7956 51.1839 53.5587 50.6213 54.1213C50.0587 54.6839 49.2956 55 48.5 55H33.5C32.7044 55 31.9413 54.6839 31.3787 54.1213C30.8161 53.5587 30.5 52.7956 30.5 52V31H51.5Z" stroke="white" stroke-width="2" stroke-linecap="round" stroke-linejoin="round"/>
<path d="M44 38.5V47.5" stroke="white" stroke-width="2" stroke-linecap="round" stroke-linejoin="round"/>
<path d="M38 38.5V47.5" stroke="white" stroke-width="2" stroke-linecap="round" stroke-linejoin="round"/>
</svg>
